Chapter 3 Code Enforcement | Memphis Code Enforcement
…
There are many many duplicated entries. It’s hard to determine exactly how many, because the duplicates will have unique values under INCIDENT_NUMBER and slightly different date/times. For this reason it is hard to filter out without accidentally omitting multiple legitimate entries under the same property. Also, any entries that were created in error are kept in the system. This leads to inspectors frequently entering “see sr#xxxxxx” in the RESOLUTION_SUMMARY, referring to a different INCIDENT_NUMBER that contains the correct file.5 There is also a code specifically for duplicate entries that already have an active file, JA (Justified, Active already file), which has been used 6,588 times, though other codes are known to be used for this same problem.

Other problems are more major. It appears that SeeClickFix (SCF), a program used to allow users to create requests, can cause the wrong address to be entered into the system. There is no warning given for this error. When I attempted to sort addresses with the most violations, the top address does not actually exist in the city of Memphis. The inspectors know this and they seem to be able to view the correct address in SCF, and sometimes (but not often) they will manually write this address in the RESOLUTION_SUMMARY. It is unclear how many addresses have this problem, but it does affect multiple addresses. As a researcher, I feel nervous conducting research on data with such obvious errors.

Each row is meant to hold all information for a single case. There is also only one column for inspectors to manually enter notes: RESOLUTION_SUMMARY. This column has become a catch-all for legitimate information, though it is also NA in 23% of rows. In many other cases there is little elaboration, or the RESOLUTION_CODE_MEANING is simply repeated. Despite having eight different date columns, it is very common for dates to be entered here with the notes. Because this field is typed, typos are not-uncommon—tenant is spelled “tennant” 51 times, with many other variations such as “tenenat,” “tenet,” “teneant” and “tenent.” Other times a tenant is referred to as a “resident.” These variances make it difficult to find all instances of keywords.

Lastly, there are also obvious privacy issues included in the field, such as the full name and phone numbers of individuals.

3.2.2 Duplicates & Errors

Searching for duplicates is made difficult by the large number of errors in the dataset. This is made clear when we begin searching for addresses with the most service requests.

CE %>% count(ADDRESS1) %>% arrange(desc(n))

## # A tibble: 73,772 x 2
##    ADDRESS1               n
##    <chr>              <int>
##  1 <NA>                 547
##  2 746 CHAPEL ST        194
##  3 45 S IDLEWILD ST     117
##  4 1490 HUGENOT ST       88
##  5 3923 JACKSON AVE      76
##  6 102 PLAINVIEW ST      73
##  7 400 S HIGHLAND ST     72
##  8 1081 COURT AVE APT    71
##  9 3373 STEVE RD         50
## 10 810 WASHINGTON AVE    46
## # … with 73,762 more rows

There are 194 entries listed under the address 746 Chapel St, an address that does not seem to exist in Memphis (there is a Chapel Rd, but no 746). Reviewing the RESOLUTION_SUMMARY reveals the address to be a catch all of errors. Sometimes a different address or a business name is written in the RESOLUTION_SUMMARY, indicating the results we are seeing is not the same as what was originally entered, yet code inspectors may be able to view the correct address. It is likely best to remove this address from any analysis involving location.

At 1490 Hugenot St, there are 117 requests, but this property appears to have the same problem as 746 Chapel. This is revealed by certain entries in the RESOLUTION_SUMMARY including “The correct address is xxx Summer Ave.” and “INSUFFICIENT INFORMATION WRONG ADDRESS SUBMITTED BY SEECLICKFIX” (SeeClickFix, or SCF, is listed as the request creator for all but five entries at this address).

As for 45 S Idlewild, this is a valid location (an apartment complex) with 117 service requests. A closer look shows three people made 20 requests on February 1, 2019. Yet as discussed below, it is not clear if we should trust the information seen in CREATED_BY_USER.

When we look closer at who is making complaints to code enforcement, it at first seems a few people are creating an astounding number of requests.6

CE %>% count(CREATED_BY_USER) %>% arrange(desc(n))

## # A tibble: 314 x 2
##    CREATED_BY_USER        n
##    <chr>              <int>
##  1 SCF                31585
##  2 HELEN.ANDERSON      6039
##  3 CAROLYN.FRANKLIN    5244
##  4 CHRISTINA.MCENTYRE  4708
##  5 ANGELA.HUMPHREY     4508
##  6 KRISTEN.PREWITT     3916
##  7 JOSE.VALENTIN       3664
##  8 LOVEETA.ROGERS      3619
##  9 NADINE.SMITH        3517
## 10 TAMMIKO.MOORE       2915
## # … with 304 more rows
…
